pre.test2.1
…
Q2

e1 = shipping |>
  pivot_longer(cols = c(France, Spain),
               names_to = 'shipping_transaction_country') |>
  filter(value == 1) |>
  select(-value)
e1

# A tibble: 10,999 × 14
       X    ID Warehouse_block Mode_of_Shipment Customer_care_calls
   <int> <int> <chr>           <chr>                          <int>
 1     1     1 D               Flight                             4
 2     2     2 F               Flight                             4
 3     3     3 A               Flight                             2
 4     4     4 B               Flight                             3
 5     5     5 C               Flight                             2
 6     6     6 F               Flight                             3
 7     7     7 D               Flight                             3
 8     8     8 F               Flight                             4
 9     9     9 A               Flight                             3
10    10    10 B               Flight                             3
# ℹ 10,989 more rows
# ℹ 9 more variables: Customer_rating <int>, Cost_of_the_Product <int>,
#   Prior_purchases <int>, Product_importance <chr>, Gender <chr>,
#   Discount_offered <int>, Weight_in_gms <int>, Reached.on.Time_Y.N <int>,
#   shipping_transaction_country <chr>
…
