pre_test2
…
── Attaching core tidyverse packages ──────────────────────── tidyverse 2.0.0 ──
✔ dplyr     1.1.4     ✔ readr     2.1.6
✔ forcats   1.0.1     ✔ stringr   1.6.0
✔ ggplot2   4.0.1     ✔ tibble    3.3.0
✔ lubridate 1.9.4     ✔ tidyr     1.3.1
✔ purrr     1.2.0     
── Conflicts ────────────────────────────────────────── tidyverse_conflicts() ──
✖ dplyr::filter() masks stats::filter()
✖ dplyr::lag()    masks stats::lag()
ℹ Use the conflicted package (<http://conflicted.r-lib.org/>) to force all conflicts to become errors

penguins = as_tibble(penguins)
penguins

# A tibble: 344 × 8
   species island    bill_len bill_dep flipper_len body_mass sex     year
   <fct>   <fct>        <dbl>    <dbl>       <int>     <int> <fct>  <int>
 1 Adelie  Torgersen     39.1     18.7         181      3750 male    2007
 2 Adelie  Torgersen     39.5     17.4         186      3800 female  2007
 3 Adelie  Torgersen     40.3     18           195      3250 female  2007
 4 Adelie  Torgersen     NA       NA            NA        NA <NA>    2007
 5 Adelie  Torgersen     36.7     19.3         193      3450 female  2007
 6 Adelie  Torgersen     39.3     20.6         190      3650 male    2007
 7 Adelie  Torgersen     38.9     17.8         181      3625 female  2007
 8 Adelie  Torgersen     39.2     19.6         195      4675 male    2007
 9 Adelie  Torgersen     34.1     18.1         193      3475 <NA>    2007
10 Adelie  Torgersen     42       20.2         190      4250 <NA>    2007
# ℹ 334 more rows

#2

e1 = penguins |> 
  pivot_longer(
    cols = 'bill_len':'body_mass',
    names_to = 'measuremwnt',
    values_to = 'value',
    values_drop_na = TRUE)
e1

# A tibble: 1,368 × 6
   species island    sex     year measuremwnt  value
   <fct>   <fct>     <fct>  <int> <chr>        <dbl>
 1 Adelie  Torgersen male    2007 bill_len      39.1
 2 Adelie  Torgersen male    2007 bill_dep      18.7
 3 Adelie  Torgersen male    2007 flipper_len  181  
 4 Adelie  Torgersen male    2007 body_mass   3750  
 5 Adelie  Torgersen female  2007 bill_len      39.5
 6 Adelie  Torgersen female  2007 bill_dep      17.4
 7 Adelie  Torgersen female  2007 flipper_len  186  
 8 Adelie  Torgersen female  2007 body_mass   3800  
 9 Adelie  Torgersen female  2007 bill_len      40.3
10 Adelie  Torgersen female  2007 bill_dep      18  
# ℹ 1,358 more rows

#3

e1 = penguins |> 
  pivot_longer(
    cols = 'bill_len':'body_mass',
    names_to = 'measurement',
    values_to = 'value',
    values_drop_na = TRUE) |>
  separate(col = measurement, c('measurement_type', 'measurement_unit'))
e1

# A tibble: 1,368 × 7
   species island    sex     year measurement_type measurement_unit  value
   <fct>   <fct>     <fct>  <int> <chr>            <chr>             <dbl>
 1 Adelie  Torgersen male    2007 bill             len                39.1
 2 Adelie  Torgersen male    2007 bill             dep                18.7
 3 Adelie  Torgersen male    2007 flipper          len               181  
 4 Adelie  Torgersen male    2007 body             mass             3750  
 5 Adelie  Torgersen female  2007 bill             len                39.5
 6 Adelie  Torgersen female  2007 bill             dep                17.4
 7 Adelie  Torgersen female  2007 flipper          len               186  
 8 Adelie  Torgersen female  2007 body             mass             3800  
 9 Adelie  Torgersen female  2007 bill             len                40.3
10 Adelie  Torgersen female  2007 bill             dep                18  
# ℹ 1,358 more rows

#Q2

#1

e2 = e1 |>
  filter(species == 'Adelie')
e2

# A tibble: 604 × 7
   species island    sex     year measurement_type measurement_unit  value
   <fct>   <fct>     <fct>  <int> <chr>            <chr>             <dbl>
 1 Adelie  Torgersen male    2007 bill             len                39.1
 2 Adelie  Torgersen male    2007 bill             dep                18.7
 3 Adelie  Torgersen male    2007 flipper          len               181  
 4 Adelie  Torgersen male    2007 body             mass             3750  
 5 Adelie  Torgersen female  2007 bill             len                39.5
 6 Adelie  Torgersen female  2007 bill             dep                17.4
 7 Adelie  Torgersen female  2007 flipper          len               186  
 8 Adelie  Torgersen female  2007 body             mass             3800  
 9 Adelie  Torgersen female  2007 bill             len                40.3
10 Adelie  Torgersen female  2007 bill             dep                18  
# ℹ 594 more rows
…
